{
    "group_id": "Normal Users",
    "users": [
        {
            "id": "user",
            "session": {
                "form_id": "login-form",
                "creds": {
                    "username": "user",
                    "password": "userpass"
                }
            }
        },
        {
            "id": "player",
            "session": {
                "form_id": "login-form",
                "creds": {
                    "username": "player",
                    "password": "playerpass"
                }
            }
        }
    ],
    "rules": {
        "Normal users can visit the public users page": {
            "request": {
                "sub_url": "?usertype=public",
                "method": "GET"
            },
            "response": {
                "status_code": 200,
                "headers": {
                    "Content-Type": "text/html"
                },
                "page_texts": [
                    "id",
                    "username",
                    "usertype",
                    "occupation"
                ]
            }
        }
    }
}
